tidymodel walkthrough
…
Create features

flights_data %>%
  distinct(date) %>%
  mutate(numeric_date = as.numeric(date))

## # A tibble: 364 x 2
##    date       numeric_date
##    <date>            <dbl>
##  1 2013-01-01        15706
##  2 2013-01-02        15707
##  3 2013-01-03        15708
##  4 2013-01-04        15709
##  5 2013-01-05        15710
##  6 2013-01-06        15711
##  7 2013-01-07        15712
##  8 2013-01-08        15713
##  9 2013-01-09        15714
## 10 2013-01-10        15715
## #  with 354 more rows
…
