Untitled
…
poverty_data <- get_data360(indicator_id = 1783, output_type = "long")

## Warning in melt.data.table(df_compiled, id.vars = intersect(nondate_cols, :
## 'measure.vars' [1977, 1979, 1980, 1981, ...] are not all of the same
## type. By order of hierarchy, the molten data value column will be of type
## 'double'. All measure variables not of type 'double' will be coerced too.
## Check DETAILS in ?melt.data.table for more on coercion.

poverty_data %>%
  tbl_df() %>%
  setNames(c("country", "name", "indicator", "sub", "period", "observation")) %>%
  group_by(period) %>%
  summarize()

## # A tibble: 40 x 1
##    period
##    <fct> 
##  1 1977  
##  2 1979  
##  3 1980  
##  4 1981  
##  5 1982  
##  6 1983  
##  7 1984  
##  8 1985  
##  9 1986  
## 10 1987  
## # ... with 30 more rows
