Analyzing train delays in France
…
## See spec(...) for full column specifications.

full_trains %>%
  count(departure_station, sort = T)

## # A tibble: 59 x 2
##    departure_station        n
##    <chr>                <int>
##  1 Paris Lyon            1139
##  2 Paris Montparnasse     752
##  3 Paris Est              282
##  4 Lyon Part Dieu         246
##  5 Paris Nord             188
##  6 Marseille St Charles   174
##  7 Lille                  141
##  8 Nantes                 105
##  9 Rennes                 105
## 10 Montpellier             94
## #  with 49 more rows
…
