Board_games
…
## See spec(...) for full column specifications.

holdout_set <- board_games_raw %>%
  filter(game_id %% 5 == 0)

board_games <- board_games_raw %>%
  filter(game_id %% 5 != 0)

EDA

board_games %>%
  count(publisher, sort = T)

## # A tibble: 4,564 x 2
##    publisher                                n
##    <chr>                                <int>
##  1 GMT Games                              149
##  2 SPI (Simulations Publications, Inc.)    99
##  3 Avalon Hill                             83
##  4 Ravensburger Spieleverlag GmbH          81
##  5 Decision Games (I)                      55
##  6 KOSMOS                                  55
##  7 Queen Games                             55
##  8 Avalanche Press Ltd.                    50
##  9 (Self-Published)                        48
## 10 Games Workshop Ltd.                     48
## #  with 4,554 more rows
…
