Golden age of Television
…
Has TV been gettng better or worse over time.

tv_ratings %>%
  group_by(year = year(date)) %>%
  summarize(mean_ratings = mean(av_rating),
            median_rating = median(av_rating),
            sd = sd(av_rating)) 

## # A tibble: 29 x 4
##     year mean_ratings median_rating    sd
##    <dbl>        <dbl>         <dbl> <dbl>
##  1  1990         7.94          7.86 1.08 
##  2  1991         7.99          8.03 0.646
##  3  1992         7.88          7.82 0.570
##  4  1993         7.87          7.80 0.706
##  5  1994         7.87          7.93 0.939
##  6  1995         7.79          7.8  0.706
##  7  1996         7.63          7.96 1.24 
##  8  1997         7.70          7.80 0.897
##  9  1998         7.99          7.96 0.528
## 10  1999         7.79          7.85 0.574
## #  with 19 more rows
…
