Analyze medium articles with R
…
## See spec(...) for full column specifications.

medium_processed <- medium_dataset %>% 
  select(-x1) %>%
  dplyr::mutate(post_id = row_number())

# look at common authors
medium_processed %>%
  dplyr::count(author, sort = T)

## # A tibble: 33,305 x 2
##    author                   n
##    <chr>                <int>
##  1 Yves Mulkers           487
##  2 Synced                 328
##  3 <NA>                   286
##  4 DEEP AERO DRONES       279
##  5 AI Hawk                245
##  6 Peter Marshall         209
##  7 Ilexa Yardley          162
##  8 Alibaba Cloud          160
##  9 Corsair's Publishing   156
## 10 Jae Duk Seo            150
## # ... with 33,295 more rows
…
# gather tags together and filter out the articles don't have tags
medium_gathered <- medium_processed %>%
  gather(tag, value, starts_with("tag")) %>%
  dplyr::mutate(tag = str_remove(tag, "tag_")) %>%
  dplyr::filter(value == 1)

medium_processed %>%
  gather(tag, value, starts_with("tag")) %>%
  dplyr::mutate(tag = str_remove(tag, "tag_")) %>%
  dplyr::filter(value == 1)

## # A tibble: 112,994 x 15
##    title subtitle image author publication  year month   day reading_time
##    <chr> <chr>    <dbl> <chr>  <chr>       <dbl> <dbl> <dbl>        <dbl>
##  1 Onli Online      1 Emma  <NA>         2017     8     1            5
##  2 A.I. <NA>         0 Sanpa <NA>         2017     8     1            2
##  3 Futu From Ph     1 Z      <NA>         2017     8     1            3
##  4 The  A true      1 Emiko MILLENNIAL  2017     8     1            5
##  5 Os M mas per     1 Giova NEW ORDER    2017     8     1            3
##  6 The  Origina     1 Syed  Towards Da  2017     8     1            6
##  7 Digi Health      1 Anna  <NA>         2017     8     1            5
##  8 Addr https:/     0 The A <NA>         2017     8     1            0
##  9 Wir  <NA>         1 Angel <NA>         2017     8     1            4
## 10 <NA>  199973       0 The p <NA>         2017     8     1            3
## # ... with 112,984 more rows, and 6 more variables: claps <dbl>,
## #   url <chr>, author_url <chr>, post_id <int>, tag <chr>, value <dbl>
…
tidy(lasso_model$glmnet.fit) %>%
  dplyr::filter(lambda == lasso_model$lambda.min) %>%
  arrange(desc(estimate))

## # A tibble: 157 x 5
##    term         step estimate  lambda dev.ratio
##    <chr>       <dbl>    <dbl>   <dbl>     <dbl>
##  1 (Intercept)    50    2.23  0.00214    0.0682
##  2 introducing    50    1.32  0.00214    0.0682
##  3 update         50    0.966 0.00214    0.0682
##  4 guide          50    0.886 0.00214    0.0682
##  5 tensorflow     50    0.874 0.00214    0.0682
##  6 blockchain     50    0.864 0.00214    0.0682
##  7 building       50    0.857 0.00214    0.0682
##  8 detection      50    0.812 0.00214    0.0682
##  9 python         50    0.668 0.00214    0.0682
## 10 networks       50    0.587 0.00214    0.0682
## # ... with 147 more rows
…
