Untitled
…
thanksgiving_survey <- read_csv("https://raw.githubusercontent.com/rfordatascience/tidytuesday/master/data/2018-11-20/thanksgiving_meals.csv") %>%
  mutate(family_income = fct_reorder(family_income, parse_number(family_income)))

## Warning: 136 parsing failures.
## row # A tibble: 5 x 4 col     row   col expected actual               expected   <int> <int> <chr>    <chr>                actual 1     8    NA a number Prefer not to answer row 2    29    NA a number Prefer not to answer col 3    32    NA a number Prefer not to answer expected 4    33    NA a number Prefer not to answer actual 5    38    NA a number Prefer not to answer
## ... ................. ... ........................................... ........ ........................................... ...... ........................................... ... ........................................... ... ........................................... ........ ........................................... ...... ...........................................
## See problems(...) for more details.

almost everyone serves turkey as the main disk

thanksgiving_survey%>%
  dplyr::count(main_dish, main_prep, sort = T)

## # A tibble: 31 x 3
##    main_dish              main_prep                  n
##    <chr>                  <chr>                  <int>
##  1 Turkey                 Baked                    422
##  2 Turkey                 Roasted                  351
##  3 <NA>                   <NA>                      84
##  4 Turkey                 Fried                     41
##  5 Turkey                 Other (please specify)    34
##  6 Ham/Pork               Baked                     22
##  7 Other (please specify) Baked                     16
##  8 Tofurkey               Baked                     14
##  9 Other (please specify) Other (please specify)    12
## 10 Turkey                 I don't know              11
## # ... with 21 more rows
…
food_gathered %>% 
  inner_join(thanksgiving_survey, by = "id") %>%
  dplyr::filter(!is.na(prayer)) %>%
  group_by(type, value) %>%
  dplyr::summarise(prayer = sum(prayer == "Yes"),
                   total = n()) %>%
  add_ebb_estimate(prayer, total) %>%
  arrange(desc(.fitted))

## # A tibble: 32 x 10
## # Groups:   type [3]
##    type   value      prayer total .alpha1 .beta1 .fitted  .raw  .low .high
##    <chr>  <chr>       <int> <int>   <dbl>  <dbl>   <dbl> <dbl> <dbl> <dbl>
##  1 side   Macaroni     169   205   224.    59.9   0.789 0.824 0.740 0.834
##  2 pie    Sweet Pot    121   151   176.    53.9   0.766 0.801 0.709 0.818
##  3 side   Fruit sal    169   214   224.    68.9   0.765 0.790 0.715 0.812
##  4 desse Peach cob     81   102   136.    44.9   0.752 0.794 0.687 0.812
##  5 pie    Cherry         86   112   141.    49.9   0.739 0.768 0.674 0.798
##  6 pie    Coconut c     29    35    83.9   29.9   0.738 0.829 0.653 0.814
##  7 desse Cheesecake    142   189   197.    70.9   0.735 0.751 0.681 0.786
##  8 desse Carrot ca     54    72   109.    41.9   0.722 0.75  0.648 0.791
##  9 desse Apple cob     79   110   134.    54.9   0.709 0.718 0.643 0.772
## 10 pie    Buttermilk     25    34    79.9   32.9   0.709 0.735 0.622 0.788
## # ... with 22 more rows
…
