Analyzing Dolphin data
…
cataceans %>%
  count(acquisition,originLocation, sort = T) %>%
  filter(originLocation != "Unknown")

## # A tibble: 134 x 3
##    acquisition originLocation              n
##    <chr>       <chr>                   <int>
##  1 Capture     Gulf of Mexico, MS, US    116
##  2 Capture     Pacific Ocean, CA, US      85
##  3 Born        SeaWorld San Diego         81
##  4 Born        SeaWorld Orlando           78
##  5 Born        SeaWorld San Antonio       72
##  6 Born        U.S. Navy                  63
##  7 Capture     Florida Keys               56
##  8 Born        Dolphin Research Center    45
##  9 Born        Discovery Cove             37
## 10 Capture     Florida                    36
## #  with 124 more rows
…
